﻿263cd457-9eb1-41e6-b770-94fcbb25cd03-->und\263cd457-9eb1-41e6-b770-94fcbb25cd03
263cd457-9eb1-41e6-b770-94fcbb25cd03.0-->und\263cd457-9eb1-41e6-b770-94fcbb25cd03.0
65f16628-6e17-45e1-ae9b-e44b1bee5c2a-->und\65f16628-6e17-45e1-ae9b-e44b1bee5c2a
65f16628-6e17-45e1-ae9b-e44b1bee5c2a.0-->und\65f16628-6e17-45e1-ae9b-e44b1bee5c2a.0
70e297e0-e8a2-43bf-8be1-62e408f610a1-->und\70e297e0-e8a2-43bf-8be1-62e408f610a1
70e297e0-e8a2-43bf-8be1-62e408f610a1.0-->und\70e297e0-e8a2-43bf-8be1-62e408f610a1.0
79a499cc-1782-4a2f-abe7-61ea4d49fd5a-->und\79a499cc-1782-4a2f-abe7-61ea4d49fd5a
8aa13ab8-188a-4f59-be4f-031aa5450c90.0\info-->und\8aa13ab8-188a-4f59-be4f-031aa5450c90.0\info
8aa13ab8-188a-4f59-be4f-031aa5450c90.0\text-->ObjectModule.bsl
copyinfo-->und\copyinfo
d42d04b9-8121-49a7-9b52-f8f9c7bdcdd1-->und\d42d04b9-8121-49a7-9b52-f8f9c7bdcdd1
d42d04b9-8121-49a7-9b52-f8f9c7bdcdd1.0-->und\d42d04b9-8121-49a7-9b52-f8f9c7bdcdd1.0
root-->und\root
version-->und\version
versions-->und\versions
